module activewear-woo

go 1.15

require (
	github.com/jinzhu/copier v0.3.0
	github.com/robfig/cron/v3 v3.0.1
	github.com/stretchr/testify v1.7.0
	gopkg.in/yaml.v3 v3.0.0-20200313102051-9f266ea9e77c
)
